<svg xmlns="http://www.w3.org/2000/svg" xmlns:xlink="http://www.w3.org/1999/xlink" width="20" height="20" viewBox="0 0 20 20">
  <defs>
    <clipPath id="clip-path">
      <rect id="Rectangle_6" data-name="Rectangle 6" width="20" height="20" transform="translate(949 343)" fill="#919eab" stroke="#707070" stroke-width="1"/>
    </clipPath>
  </defs>
  <g id="blogs" transform="translate(-949 -343)" clip-path="url(#clip-path)">
    <path id="blog" d="M9.961,7.891a.781.781,0,1,1-.781.781A.781.781,0,0,1,9.961,7.891Zm2.734.781a.781.781,0,1,0,.781-.781A.781.781,0,0,0,12.7,8.672Zm-7.031,0a.781.781,0,1,0,.781-.781A.781.781,0,0,0,5.664,8.672ZM19.313,16A2.344,2.344,0,0,1,16,19.314L11.71,15.034a.78.78,0,0,1-.2-.326l-.934-3.075a.781.781,0,0,1,.956-.98l3.153.873a.781.781,0,0,1,.343.2Zm-6.36-1.932,2.894,2.888,1.105-1.105-2.877-2.872-1.586-.439ZM18.209,17.1l-.151-.151-1.1,1.1.15.15a.781.781,0,1,0,1.105-1.1Zm-7.774-.914c-.144.006-.291.009-.435.009a9.454,9.454,0,0,1-3.595-.7.782.782,0,0,0-.6,0l-3.557,1.5,1.2-2.839a.781.781,0,0,0-.136-.823A6.624,6.624,0,0,1,1.563,8.9c0-4.046,3.785-7.338,8.438-7.338S18.438,4.854,18.438,8.9a6.431,6.431,0,0,1-.7,2.863.781.781,0,1,0,1.4.692A7.98,7.98,0,0,0,20,8.9C20,3.993,15.514,0,10,0S0,3.993,0,8.9A8.1,8.1,0,0,0,1.822,14l-1.76,4.17A.781.781,0,0,0,1.085,19.2L6.121,17.07A11.037,11.037,0,0,0,10,17.762c.167,0,.336,0,.5-.011a.781.781,0,1,0-.068-1.561Zm0,0" transform="translate(949 343.001)" fill="#919eab"/>
  </g>
</svg>
