<svg xmlns="http://www.w3.org/2000/svg" xmlns:xlink="http://www.w3.org/1999/xlink" width="20" height="20" viewBox="0 0 20 20">
  <defs>
    <clipPath id="clip-path">
      <rect id="Rectangle_8" data-name="Rectangle 8" width="20" height="20" transform="translate(644 447)" fill="#919eab" stroke="#707070" stroke-width="1"/>
    </clipPath>
  </defs>
  <g id="configurations" transform="translate(-644 -447)" clip-path="url(#clip-path)">
    <g id="configuration-tools" transform="translate(644 447)">
      <g id="Group_25" data-name="Group 25">
        <path id="Path_20" data-name="Path 20" d="M17.43.306A.93.93,0,0,0,16.144.3L11.567,4.833a2.581,2.581,0,0,0-.516.783l-.235.6a1.176,1.176,0,0,0,.224,1.176l1.369,1.469a1.184,1.184,0,0,0,.846.353,1.049,1.049,0,0,0,.311-.046l.625-.193a2.356,2.356,0,0,0,.826-.489L19.723,3.94a.9.9,0,0,0,.016-1.287ZM14.258,7.7a1.3,1.3,0,0,1-.391.232l-.61.19h0c-.017,0-.04-.007-.046-.007h0L11.849,6.657c-.008-.013-.013-.045-.016-.046l.235-.6a1.531,1.531,0,0,1,.268-.407L16.781,1.2,18.83,3.285Z" fill="#919eab"/>
        <path id="Path_21" data-name="Path 21" d="M7.98,12.965l-.739-.784A.908.908,0,0,0,5.949,12.1L3.124,14.769a.93.93,0,0,0-.868.283l-.3.3a4.577,4.577,0,0,0-.527.655L.181,17.945A.878.878,0,0,0,.24,19.09c.015.014.04.039.073.073.533.537.847.793,1.19.793a.623.623,0,0,0,.32-.088l2.05-1.23a4.083,4.083,0,0,0,.674-.526l.35-.35a.922.922,0,0,0,.271-.91l2.755-2.587A.939.939,0,0,0,7.98,12.965ZM4.342,16.132a.911.911,0,0,0-.286.928l-.281.281a3.054,3.054,0,0,1-.464.362L1.5,18.788c-.079-.067-.191-.17-.354-.331L2.342,16.6a3.612,3.612,0,0,1,.381-.473l.237-.235a.949.949,0,0,0,.851-.269L6.55,13.038l.511.541Z" fill="#919eab"/>
        <path id="Path_22" data-name="Path 22" d="M.685,3.62c-.537,0-.619.618-.646.822A4.507,4.507,0,0,0,4.5,9.542,4.563,4.563,0,0,0,5.6,9.4c.036,0,.071.013.069.009l8.958,9.14a2.55,2.55,0,0,0,1.783.856h0a2.435,2.435,0,0,0,1.762-.848,2.251,2.251,0,0,0-.011-3.224L8.878,6.246a.177.177,0,0,1-.017-.088A4.5,4.5,0,0,0,3.677.614a.989.989,0,0,0-.7.379.577.577,0,0,0-.065.448c.025.088.059.208.434.561L5.083,3.633a.219.219,0,0,1,.028.077L4.7,5.314a.227.227,0,0,1-.052.059l-1.606.41a.247.247,0,0,1-.077-.018l-1.594-1.7c-.323-.345-.422-.4-.557-.432A.533.533,0,0,0,.685,3.62ZM2.172,6.511a1.234,1.234,0,0,0,1.135.331l1.614-.411a1.223,1.223,0,0,0,.836-.836L6.169,3.98a1.226,1.226,0,0,0-.33-1.134l-1.3-1.218a3.414,3.414,0,0,1,3.369,3.41,3.366,3.366,0,0,1-.109.844,1.215,1.215,0,0,0,.3,1.129L17.388,16.1a1.177,1.177,0,0,1,0,1.7,1.4,1.4,0,0,1-.975.513h0a1.463,1.463,0,0,1-.963-.485.415.415,0,0,0-.029-.032S7.936,10.165,6.451,8.649A1.2,1.2,0,0,0,5.6,8.313a1.113,1.113,0,0,0-.277.034,3.356,3.356,0,0,1-.823.1A3.415,3.415,0,0,1,1.108,5.378Z" fill="#919eab"/>
        <path id="Path_23" data-name="Path 23" d="M16.372,17.864a.91.91,0,1,0-.91-.91A.911.911,0,0,0,16.372,17.864Zm0-1.455a.546.546,0,1,1-.546.546A.546.546,0,0,1,16.372,16.409Z" fill="#919eab"/>
      </g>
    </g>
  </g>
</svg>
