<svg xmlns="http://www.w3.org/2000/svg" xmlns:xlink="http://www.w3.org/1999/xlink" width="20" height="20" viewBox="0 0 20 20">
  <defs>
    <clipPath id="clip-path">
      <rect id="Rectangle_176" data-name="Rectangle 176" width="20" height="20" transform="translate(1014 503)" fill="#919eab" stroke="#707070" stroke-width="1"/>
    </clipPath>
  </defs>
  <g id="Mask_Group_2" data-name="Mask Group 2" transform="translate(-1014 -503)" clip-path="url(#clip-path)">
    <path id="questions" d="M3.926,16.875H16.074a2.346,2.346,0,0,0,2.344-2.344V2.344A2.346,2.346,0,0,0,16.074,0H3.926A2.346,2.346,0,0,0,1.582,2.344V17.656A2.346,2.346,0,0,0,3.926,20H16.074a2.346,2.346,0,0,0,2.344-2.344v0a3.886,3.886,0,0,1-2.344.783H3.926a.781.781,0,0,1,0-1.562ZM3.145,2.344a.782.782,0,0,1,.781-.781H16.074a.782.782,0,0,1,.781.781V14.531a.782.782,0,0,1-.781.781H3.926a2.333,2.333,0,0,0-.781.134ZM8.691,6.585H7.129a2.829,2.829,0,0,1,.943-2.1,2.883,2.883,0,0,1,2.24-.712,2.849,2.849,0,0,1,2.505,2.5,3.16,3.16,0,0,1-1.1,2.578c-.138.138-.265.26-.377.367-.511.487-.576.569-.576.905v.039H9.2v-.039a2.544,2.544,0,0,1,1.06-2.036c.11-.105.225-.214.348-.338.5-.507.7-.9.656-1.305a1.276,1.276,0,0,0-1.124-1.116,1.3,1.3,0,0,0-1.025.324A1.248,1.248,0,0,0,8.691,6.585ZM9.2,11.328h1.563v1.563H9.2Z" transform="translate(1014 503)" fill="#919eab"/>
  </g>
</svg>
