resource_type,namespace,key,type,label
products,global,name,string,this metafield is store product name
customers,global,email,email,This is store customer email
orders,global,multiple_image,multiple_image,
smart_collections,global,date_picker,date_picker,
custom_collections,global,rich_text_box,rich_text_box,
variants,global,image,image,
blogs,global,number,number,
articles,global,email,email,
pages,global,url,url,
shop,global,color_picker,color_picker,
