namespace,key,type,value,label,owner_id,handle
global,abc,string,Hello World!,Details of metafield,96325698563,product-1
global,pqr,url,http://www.google.com,Details of metafield,85631718593,product-1
